{"order":{"complete":false,"delivery":false,"deliveryInfo":"none","orderID":"PIZZAN-66","pickUpInfo":{"name":"Anya","phone":"4566454"},"pizzas":[{"bottom":1,"id":-1,"name":"Pizza-1. Custom","price":1190,"size":1,"toppings":[]}],"totalPrice":1190}}
{"order":{"complete":false,"delivery":false,"deliveryInfo":"none","orderID":"PIZZAN-67","pickUpInfo":{"name":"Anya","phone":"34635345"},"pizzas":[{"bottom":1,"id":-1,"name":"Pizza-1. Custom","price":1190,"size":1,"toppings":[]}],"totalPrice":1190}}
{"order":{"complete":false,"delivery":false,"deliveryInfo":"none","orderID":"PIZZAN-68","pickUpInfo":{"name":"Anya","phone":"4564564"},"pizzas":[{"bottom":1,"id":-1,"name":"Pizza-1. Custom","price":1190,"size":1,"toppings":[]}],"totalPrice":1190}}
{"order":{"complete":false,"delivery":true,"deliveryInfo":{"address":"Jolaholar 23","city":"Reykjavik","name":"Hauksson","phone":"7805675","postal_code":"105"},"orderID":"PIZZAN-69","pickUpInfo":"none","pizzas":[{"bottom":1,"id":-1,"name":"Pizza-0. Meat Festival","price":1790,"size":1,"toppings":[{"amount":1,"id":6,"type":1},{"amount":1,"id":1,"type":1},{"amount":1,"id":7,"type":1},{"amount":1,"id":2,"type":1}]}],"totalPrice":1790}}
{"order":{"complete":false,"delivery":true,"deliveryInfo":{"address":"adfasdf","city":"asdfasdf","name":"Hauksson","phone":"234244","postal_code":"234"},"orderID":"PIZZAN-70","pickUpInfo":"none","pizzas":[{"bottom":1,"id":-1,"name":"Pizza-0. Sweet & Spicy","price":1640,"size":1,"toppings":[{"amount":1,"id":1,"type":1},{"amount":1,"id":15,"type":2},{"amount":1,"id":20,"type":2},{"amount":1,"id":24,"type":3}]}],"totalPrice":1640}}
{"order":{"complete":false,"delivery":true,"deliveryInfo":{"address":"Gardartangi 13","city":"Reykjavik","name":"Hauksson","phone":"6750560","postal_code":"105"},"orderID":"PIZZAN-71","pickUpInfo":"none","pizzas":[{"bottom":1,"id":-1,"name":"Pizza-1. Custom","price":1190,"size":1,"toppings":[]},{"bottom":1,"id":-1,"name":"Pizza-1. Meat Festival","price":1790,"size":1,"toppings":[{"amount":1,"id":6,"type":1},{"amount":1,"id":1,"type":1},{"amount":1,"id":7,"type":1},{"amount":1,"id":2,"type":1}]}],"totalPrice":2980}}
{"order":{"complete":false,"delivery":true,"deliveryInfo":{"address":"Hraunbaer 155","city":"RVK","name":"Hauksson","phone":"6745645","postal_code":"105"},"orderID":"PIZZAN-72","pickUpInfo":"none","pizzas":[{"bottom":1,"id":-1,"name":"Pizza-1. Custom","price":1190,"size":1,"toppings":[]},{"bottom":1,"id":-1,"name":"Pizza-1. Sweet & Spicy","price":1640,"size":1,"toppings":[{"amount":1,"id":1,"type":1},{"amount":1,"id":15,"type":2},{"amount":1,"id":20,"type":2},{"amount":1,"id":24,"type":3}]}],"totalPrice":2830}}
{"order":{"complete":false,"delivery":false,"deliveryInfo":"none","orderID":"PIZZAN-75","pickUpInfo":{"name":"asdfasdf","phone":"asdfasdf"},"pizzas":[{"bottom":1,"id":-1,"name":"Pizza-1. Custom","price":1190,"size":1,"toppings":[]}],"totalPrice":1190}}
{"order":{"complete":false,"delivery":true,"deliveryInfo":{"address":"asdfsaf","city":"asdfdasf","name":"Hasdfadf","phone":"3453453","postal_code":"105"},"orderID":"PIZZAN-76","pickUpInfo":"none","pizzas":[{"bottom":1,"id":-1,"name":"Pizza-1. Custom","price":1190,"size":1,"toppings":[]}],"totalPrice":1190}}
{"order":{"complete":false,"delivery":true,"deliveryInfo":{"address":"Hateigsvegur 33","city":"RVK","name":"Hauksson","phone":"7808505","postal_code":"105"},"orderID":"PIZZAN-84","pickUpInfo":"none","pizzas":[{"bottom":1,"id":-1,"name":"Pizza-0. Sweet & Spicy","price":3590,"size":3,"toppings":[{"amount":2,"id":1,"type":1},{"amount":1,"id":15,"type":2},{"amount":1,"id":20,"type":2},{"amount":1,"id":10,"type":2},{"amount":1,"id":24,"type":3}]},{"bottom":1,"id":-1,"name":"Pizza-2. Custom","price":1190,"size":1,"toppings":[]}],"totalPrice":4780}}
{"order":{"complete":false,"delivery":false,"deliveryInfo":"none","orderID":"PIZZAN-87","pickUpInfo":{"name":"Jon Petur","phone":"34534543"},"pizzas":[{"bottom":1,"id":-1,"name":"Pizza-1. Custom","price":1190,"size":1,"toppings":[]}],"totalPrice":1190}}
{"order":{"complete":false,"delivery":true,"deliveryInfo":{"address":"asdfsdaf","city":"asdfsaf","name":"asfsadff","phone":"asdfafa","postal_code":"asdfaf"},"orderID":"PIZZAN-88","pickUpInfo":"none","pizzas":[{"bottom":1,"id":-1,"name":"Pizza-1. Custom","price":1190,"size":1,"toppings":[]}],"totalPrice":1190}}
{"order":{"complete":false,"delivery":true,"deliveryInfo":{"address":"Hateigsvegur 33","city":"Reykjavik","name":"Aegir Mani Hauksson","phone":"7808505","postal_code":"105"},"orderID":"PIZZAN-92","pickUpInfo":"none","pizzas":[{"bottom":3,"id":-1,"name":"Pizza-0. Sweet & Spicy","price":4090,"size":3,"toppings":[{"amount":2,"id":1,"type":1},{"amount":1,"id":15,"type":2},{"amount":1,"id":20,"type":2},{"amount":1,"id":10,"type":2},{"amount":1,"id":24,"type":3},{"amount":1,"id":29,"type":4}]},{"bottom":1,"id":-1,"name":"Pizza-2. Custom","price":1190,"size":1,"toppings":[]}],"totalPrice":5280}}
